{
    "Students": [
        {
            "Name": "John",
            "DateOfBirth": "01-01-1990",
            "PlaceOfBirth": "Ariyalur",
            "Number": "0001"
        },
        {
            "Name": "Steve",
            "DateOfBirth": "01-02-1990",
            "PlaceOfBirth": "Delhi",
            "Number": "0002"
        },
        {
            "Name": "Patrick",
            "DateOfBirth": "01-04-1990",
            "PlaceOfBirth": "Bangalore",
            "Number": "0003"
        },
        {
            "Name": "selva",
            "DateOfBirth": "15-04-1998",
            "PlaceOfBirth": "ariyalur",
            "Number": "0004"
        }
    ],
    "Marks": [
        {
            "Number": "0001",
            "English": "100",
            "Science": "100",
            "Mathematics": "100"
        },
        {
            "Number": "0002",
            "English": "100",
            "Science": "100",
            "Mathematics": "100"
        },
        {
            "Number": "0003",
            "English": "100",
            "Science": "100",
            "Mathematics": "100"
        },
        {
            "Number": "0004",
            "English": "100",
            "Science": "100",
            "Mathematics": "100"
        }
    ]
}